<svg width="28" height="15" viewBox="0 0 28 15" fill="none" xmlns="http://www.w3.org/2000/svg">
<line x1="4.37114e-08" y1="7.5" x2="28" y2="7.5" stroke="#AF8E72"/>
<line x1="4.37114e-08" y1="14.5" x2="28" y2="14.5" stroke="#AF8E72"/>
<line x1="4.37114e-08" y1="0.5" x2="28" y2="0.500002" stroke="#AF8E72"/>
</svg>
