<svg width="41" height="32" viewBox="0 0 41 32" fill="none" xmlns="http://www.w3.org/2000/svg">
<path d="M15.2405 7.41176L14.0452 10.8824H16.4956L15.2405 7.41176Z" fill="#031329"/>
<path d="M31.9752 12.9412C33.7085 12.9412 34.3659 11.4118 34.3659 9.88235C34.3659 8.41176 33.6487 6.88235 31.9752 6.88235C30.3018 6.88235 29.5845 8.41176 29.5845 9.88235C29.5845 11.4118 30.1822 12.9412 31.9752 12.9412Z" fill="#031329"/>
<path d="M15.0612 22.5882L12.9096 28H14.0452L14.5233 26.7647H16.7347L17.2128 28H18.4679L16.3163 22.5882H15.0612ZM14.8222 25.9412L15.5991 23.7059L16.3761 25.9412H14.8222Z" fill="#031329"/>
<path d="M35.2026 22.5882H33.828L31.8557 24.9412V22.5882H30.7799V28.0588H31.8557V25.4706L33.828 28H35.3222L32.9315 25.1176L35.2026 22.5882Z" fill="#031329"/>
<path d="M1.13557 18.8235H39.9242V1.11765H1.13557V18.8235ZM31.9752 5.58824C34.6647 5.58824 36.1589 7.35294 36.1589 9.88235C36.1589 12.4118 34.6647 14.2353 31.9752 14.2353C29.2259 14.2353 27.7915 12.4706 27.7915 9.88235C27.7915 7.29412 29.2259 5.58824 31.9752 5.58824ZM19.723 5.76471H21.6953L23.4883 8.76471L25.2813 5.76471H27.1341L24.5641 9.82353L27.3732 14.1765H25.3411L23.3688 10.9412L21.3965 14.1176H19.484L22.293 9.76471L19.723 5.76471ZM14.344 5.76471H16.2566L18.8863 12.3529L17.691 14.1176L16.9738 12.1765H13.5073L12.7901 14.1176H11.0569L14.344 5.76471ZM7.82945 5.64706C8.54665 5.64706 9.26385 5.70588 9.86152 5.94118L9.38338 7.17647C8.96501 7.05882 8.48688 6.94118 8.00875 6.94118C7.41108 6.94118 6.69388 7.17647 6.69388 8.11765C6.69388 9.58824 10.4592 8.94118 10.4592 11.7647C10.4592 13.5882 8.96501 14.2941 7.23178 14.2941C6.33528 14.2941 5.85714 14.1765 5.02041 14L5.55831 12.6471C6.03644 12.8824 6.57434 13 7.11224 13C7.76968 13 8.60641 12.6471 8.60641 11.9412C8.60641 10.3529 4.84111 11 4.84111 8.23529C4.84111 6.29412 6.33528 5.64706 7.82945 5.64706Z" fill="#031329"/>
<path d="M25.5204 26.6471L23.4286 22.5882H22.0539V28.0588H23.1297V23.9412L25.2216 28.0588H26.5962V22.5882H25.5204V26.6471Z" fill="#031329"/>
<path d="M8.30758 25.2353C8.96501 25.1176 9.38338 24.6471 9.38338 24C9.38338 22.8235 8.30758 22.5882 7.59038 22.5882H5.67784V28H7.59038C8.30758 28 9.50292 27.7647 9.50292 26.4118C9.56268 25.7647 9.08455 25.2941 8.30758 25.2353ZM6.81341 23.4706H7.23178C7.70991 23.4706 8.30758 23.5294 8.30758 24.1765C8.30758 24.7647 7.70991 24.8235 7.23178 24.8235H6.81341V23.4706ZM7.29154 27.1765H6.75364V25.5882H7.29154C7.82945 25.5882 8.42711 25.7059 8.42711 26.4118C8.42711 27.0588 7.82945 27.1765 7.29154 27.1765Z" fill="#031329"/>
<path d="M7.29154 25.5882H6.75364V27.1765H7.29154C7.82945 27.1765 8.42711 27.0588 8.42711 26.4118C8.42711 25.7059 7.88921 25.5882 7.29154 25.5882Z" fill="white"/>
<path d="M15.5991 23.7059L14.8222 25.9412H16.4359L15.6589 23.7059L15.5991 23.7059Z" fill="white"/>
<path d="M0.1793 0.176471V31.8235H40.8207V0.176471H0.1793ZM7.59038 28.0588H5.67784V22.6471H7.59038C8.30758 22.6471 9.38338 22.8824 9.38338 24.0588C9.38338 24.7059 8.96501 25.1765 8.30758 25.2941C9.08455 25.3529 9.56268 25.8824 9.56268 26.5294C9.56268 27.8235 8.30758 28.0588 7.59038 28.0588ZM17.2128 28.0588L16.7347 26.7647H14.5233L14.0452 28H12.9096L15.0612 22.5882H16.3163L18.4679 28H17.2128V28.0588ZM26.5962 28.0588H25.2216L23.1297 24L23.1297 28.0588H22.0539V22.6471H23.4286L25.5204 26.7059V22.6471H26.5962L26.5962 28.0588ZM33.828 28L31.8557 25.4706L31.8557 28H30.7799L30.7799 22.5882H31.8557V24.9412L33.828 22.5882H35.2026L32.9315 25.1176L35.3222 28H33.828ZM1.13557 18.8235V1.11765H39.9242V18.8235H1.13557Z" fill="white"/>
<path d="M8.30758 24.1176C8.30758 23.4706 7.70991 23.4118 7.23178 23.4118H6.81341V24.7647H7.23178C7.70991 24.7647 8.30758 24.7059 8.30758 24.1176Z" fill="white"/>
<path d="M8.60641 11.8824C8.60641 12.6471 7.70991 12.9412 7.11225 12.9412C6.57434 12.9412 6.03644 12.8235 5.55831 12.5882L5.02041 13.9412C5.85714 14.1765 6.27551 14.2353 7.23178 14.2353C8.96502 14.2353 10.4592 13.5294 10.4592 11.7059C10.4592 8.88235 6.69388 9.47059 6.69388 8.05882C6.69388 7.17647 7.47085 6.88235 8.00875 6.88235C8.48688 6.88235 8.96501 6.94118 9.38338 7.11765L9.86152 5.88235C9.26385 5.64706 8.54665 5.58823 7.82945 5.58823C6.33528 5.58823 4.84111 6.29412 4.84111 8.11765C4.84111 10.9412 8.60641 10.2941 8.60641 11.8824Z" fill="white"/>
<path d="M21.3965 14.1176L23.3688 10.8824L25.3411 14.1176H27.3134L24.5641 9.76471L27.0743 5.76471L25.2813 5.76471L23.4286 8.7647L21.6953 5.76471H19.723L22.2332 9.76471L19.4242 14.1176L21.3965 14.1176Z" fill="white"/>
<path d="M31.9752 14.2941C34.6647 14.2941 36.1589 12.4706 36.1589 9.94118C36.1589 7.41176 34.6647 5.64706 31.9752 5.64706C29.2857 5.64706 27.7915 7.35294 27.7915 9.94118C27.7915 12.5294 29.2259 14.2941 31.9752 14.2941ZM31.9752 6.94118C33.6487 6.94118 34.3659 8.47059 34.3659 9.94118C34.3659 11.4706 33.7085 13 31.9752 13C30.242 13 29.5845 11.4706 29.5845 9.94118C29.5845 8.47059 30.242 6.94118 31.9752 6.94118Z" fill="white"/>
<path d="M13.5073 12.1765H16.9738L17.691 14.1176L18.8265 12.2941L16.2566 5.76471H14.344L10.9971 14.1176H12.7303L13.5073 12.1765ZM15.2405 7.41176L16.4956 10.8824H14.0452L15.2405 7.41176Z" fill="white"/>
<path d="M40.8207 0.176471V31.8235H0.1793V0.176471H40.8207ZM41 0H0V32H41V0Z" fill="#031329"/>
</svg>
