<svg width="243" height="304" viewBox="0 0 243 304" fill="none" xmlns="http://www.w3.org/2000/svg">
<path fill-rule="evenodd" clip-rule="evenodd" d="M116.178 10L148.536 0.0435903L148.543 0.028272L148.56 0.0362509L148.678 0L148.711 0.110039L222.543 36.0283L223.021 36.2607L222.76 36.7234L222.096 37.9016L241.304 156.104L242.073 156.544L241.825 156.978L241.901 157.163L241.663 157.26L241.576 157.412L241.51 157.374L241.522 157.446L241.16 157.591L241.093 157.494L133.963 201.432L134.166 201.491L133.559 201.658L133.344 202.065L133.324 202.501L133.323 202.524L133.32 202.547L127.349 245.341L127.501 245.414L127.32 245.548L127.25 246.049L126.749 245.972L126.745 245.972L66.0324 290.76L65.9799 290.798L65.917 290.815L18.417 303.815L18.3246 303.478L17.8435 303.342L37.9185 232.345L37.0817 232.216L37.8067 231.889L0.571771 139.527L0.148375 139.28L0.339849 138.952L0 138.109L0.649228 137.847L1.13137 139.043L1.2015 139.084L1.58988 138.75L2.5583 139.875L81.641 185.966L81.9651 185.63L81.9764 185.619L81.9884 185.608L129.147 142.776L129.549 142.262L129.637 142.331L135.105 137.365L135.102 137.349L87.1578 45.3743L86.2799 45.1728L86.3694 44.783L86.9148 44.9082L86.7712 44.6327L85.9087 44.8496L86.5176 44.1462L86.5143 44.1397L86.5306 44.1311L86.9466 43.6506L115.947 10.1506L116.04 10.0422L116.178 10ZM240.689 156.904L240.862 157.157L133.89 201.03L164.23 143.488L240.073 156.551L240.689 156.904ZM133.452 199.717L163.194 143.309L145.793 140.312L135.843 147.509L133.452 199.717ZM239.059 155.971L164.426 143.115L176.525 120.169L239.059 155.971ZM146.246 139.984L163.39 142.937L175.387 120.184L175.363 119.733L172.404 121.061L146.246 139.984ZM170.607 121.867L145.695 139.889L136.359 138.281L136.291 138.675L145.241 140.217L135.866 146.999L136.295 137.634L137.102 136.902L170.607 121.867ZM240.857 155.848L240.188 155.465L193.909 87.9118L221.782 38.4597L240.857 155.848ZM193.69 88.3001L239.39 155.008L177.361 119.495L177.499 119.379L176.833 118.207L193.69 88.3001ZM193.279 86.9926L221.459 36.9949L179.31 66.7473L179.306 66.8254L179.317 66.892L179.331 66.9733L179.49 66.8649L193.279 86.9926ZM179.28 67.2671L193.06 87.3809L176.447 116.856L179.28 67.2671ZM176.601 118.619L176.613 118.629L176.604 118.613L176.601 118.619ZM175.173 116.091L175.246 117.498L157.435 102.754L162.721 94.1478L175.173 116.091ZM175.126 115.198L175.075 114.214L167.405 86.524L162.96 93.7586L175.126 115.198ZM137.143 135.787L174.597 118.981L175.298 118.474L175.275 118.041L157.223 103.098L137.143 135.787ZM135.251 138.583L134.831 147.748L114.797 162.24L128.563 144.657L135.251 138.583ZM134.807 148.258L113.906 163.379L93.3375 189.651L131.978 200.857L132.044 200.769L132.279 200.944L132.393 200.977L134.807 148.258ZM125.486 147.451L112.747 163.723L87.3139 182.122L125.486 147.451ZM111.856 164.862L84.6431 184.548L82.6728 186.337L82.5567 186.457L82.6226 186.544L92.613 189.441L111.856 164.862ZM167.691 86.0583L174.978 112.366L173.136 77.1933L167.691 86.0583ZM173.044 75.4328L167.326 84.7416L161.124 62.35L172.496 64.9601L173.044 75.4328ZM172.474 64.5447L161.002 61.9118L160.143 58.8111L162.052 52.5053L172.312 61.4414L172.474 64.5447ZM156.687 47.8332L159.727 58.8063L158.931 61.4364L142.477 57.66L142.475 57.6578L144.105 36.8747L156.687 47.8332ZM161.721 52.2173L159.944 58.0901L157.234 48.3097L161.721 52.2173ZM157.041 47.6106L161.848 51.7975L164.608 42.6782L155.682 27.2992L151.693 28.3028L157.041 47.6106ZM172.282 60.8856L162.179 52.0855L164.882 43.1515L171.996 55.4084L172.282 60.8856ZM171.915 53.8755L165.16 42.2349L165.944 39.6446L171.832 52.2911L171.915 53.8755ZM165.69 39.1007L164.885 41.7617L156.389 27.1216L159.722 26.2831L165.69 39.1007ZM160.413 26.1092L165.995 38.0956L170.133 24.42L170.377 24.4938L170.371 24.3759L168.826 23.9932L160.413 26.1092ZM170.399 24.921L166.248 38.6395L171.735 50.4228L170.399 24.921ZM159.927 59.5272L159.322 61.5261L160.559 61.8101L159.927 59.5272ZM160.68 62.2483L159.205 61.9098L154.226 78.3653L162.397 92.7655L167.04 85.2073L160.68 62.2483ZM153.953 77.8849L158.815 61.8202L142.744 58.1319L153.953 77.8849ZM142.419 58.3699L153.793 78.4135L148.632 95.4672L140.066 88.3764L142.419 58.3699ZM162.158 93.1547L154.066 78.8939L148.966 95.7438L156.657 102.11L162.158 93.1547ZM156.445 102.454L148.841 96.1591L137.701 132.968L156.445 102.454ZM136.877 134.309L148.506 95.8824L140.028 88.864L136.403 135.081L136.877 134.309ZM156.494 47.1341L151.305 28.4004L144.638 30.0771L144.144 36.3782L156.494 47.1341ZM155.16 26.3994L151.426 27.3388L149.149 19.121L151.236 19.6377L155.16 26.3994ZM151.038 27.4364L148.704 19.0106L145.567 18.2341L144.721 29.0252L151.038 27.4364ZM150.538 18.4346L148.843 18.0149L147.518 13.2311L150.538 18.4346ZM148.397 17.9046L146.724 11.8628L146.196 10.9543L146.136 10.989L145.647 17.2235L148.397 17.9046ZM141.858 56.5707L129.05 33.9982L138.169 31.7044L143.448 36.3023L141.858 56.5707ZM128.647 34.0994L141.803 57.2828L141.785 57.5014L122.409 53.0545L119.81 36.3224L128.647 34.0994ZM128.538 33.0958L137.25 30.9043L126.963 21.9446L123.374 23.9957L128.538 33.0958ZM123.027 24.1941L128.135 33.1971L119.655 35.33L118.341 26.8715L123.027 24.1941ZM123.028 23.3868L126.404 21.4578L123.524 18.9487L121.373 20.4698L123.028 23.3868ZM121.045 20.7019L122.681 23.5853L118.226 26.1311L117.745 23.0359L121.045 20.7019ZM121.026 19.8579L122.98 18.4756L117.565 13.7593L121.026 19.8579ZM116.656 12.9673L120.698 20.0901L117.625 22.2634L116.106 12.4885L116.656 12.9673ZM116.97 12.7105L116.499 11.8792L116.206 12.0451L115.956 11.8271L115.877 11.7586L116.502 11.0369L129.09 14.154L123.316 18.2379L116.97 12.7105ZM139.407 87.8306L141.754 57.9045L122.476 53.48L126.102 76.817L139.407 87.8306ZM126.194 77.4129L139.368 88.3182L135.598 136.392L135.487 136.573L135.344 136.298L126.194 77.4129ZM125.637 76.4325L122.056 53.3837L88.4852 45.679L125.637 76.4325ZM88.2944 46.0403L125.73 77.0284L134.767 135.192L88.2944 46.0403ZM173.967 73.9307L173.509 65.1927L177.78 66.1728L177.956 65.8271L173.332 61.7995L173.096 57.3049L178.148 66.0096L178.3 66.8774L173.967 73.9307ZM177.091 65.6044L173.361 62.3553L173.488 64.7773L177.091 65.6044ZM143.922 30.2573L143.487 35.8058L138.642 31.5855L143.922 30.2573ZM144.005 29.2054L137.723 30.7854L127.331 21.7344L137.118 16.1419L144.879 18.0635L144.005 29.2054ZM136.134 15.8981L126.772 21.2476L123.86 18.711L129.988 14.3763L136.134 15.8981ZM89.6609 42.0431L115.632 12.0418L117.26 22.5214L89.6609 42.0431ZM92.9459 40.5769L117.38 23.2939L117.854 26.3435L92.9459 40.5769ZM90.8663 42.5715L117.969 27.084L119.266 35.428L90.8663 42.5715ZM87.6429 44.4134L119.42 36.4204L121.99 52.9581L87.8115 45.1139L87.4915 44.5L87.6429 44.4134ZM145.401 11.4091L144.958 17.0529L138.376 15.4231L145.401 11.4091ZM148.343 1.84683L146.378 9.70835L149.324 11.2992L153.398 12.7022L148.343 1.84683ZM154.318 13.0189L149.252 2.1402L162.737 15.9183L154.318 13.0189ZM154.552 13.5228L163.361 16.5564L168.184 21.4836L154.925 14.324L154.552 13.5228ZM153.633 13.2061L151.486 12.4669L153.894 13.767L153.633 13.2061ZM165.472 17.2832L171.151 23.0861L171.309 23.1714L171.313 23.2517L171.682 23.6282L171.736 23.6838L215.594 34.5438L165.472 17.2832ZM164.847 16.6451L218.135 34.9959L150.699 2.18899L164.847 16.6451ZM137.392 15.1794L145.007 10.8279H135.005L131.067 13.6133L137.392 15.1794ZM146.809 1.62122L134.782 10.1279H119.162L146.809 1.62122ZM147.604 1.9161L135.995 10.1279H145.551L147.604 1.9161ZM133.793 10.8279H119.818L130.169 13.3909L133.793 10.8279ZM171.581 28.356L177.642 63.1099L172.863 52.8457L171.581 28.356ZM175.229 59.5843L172.961 54.714L173.016 55.7721L175.229 59.5843ZM166.76 23.4817L159.983 25.1862L158.203 21.3629L166.76 23.4817ZM168.813 22.96L157.661 20.1984L155.632 15.8423L168.813 22.96ZM156.788 19.9823L154.601 15.2852L147.2 11.2888L151.483 18.6686L156.788 19.9823ZM157.33 21.1467L152.181 19.8717L155.866 26.2218L159.292 25.3601L157.33 21.1467ZM91.9487 190.289L83.6387 187.88L88.6637 194.485L91.9487 190.289ZM89.1018 195.061L92.6732 190.5L130.483 201.464L100.273 209.748L89.1018 195.061ZM88.0264 195.299L82.4593 187.981L81.6318 190.033L79.0595 206.753L88.0264 195.299ZM78.8421 208.166L88.4645 195.875L99.2338 210.033L77.6442 215.952L78.8421 208.166ZM78.178 207.879L80.4866 192.873L70.4616 217.735L78.178 207.879ZM71.4075 217.663L77.9606 209.292L76.9048 216.155L71.4075 217.663ZM69.8117 218.647L69.8149 218.6L69.7402 218.565L40.5675 231.739L60.0141 234.723L69.8117 218.647ZM60.7637 234.838L69.7063 220.165L68.6038 236.04L60.7637 234.838ZM59.4502 235.648L39.4186 232.575L48.8039 253.116L59.4502 235.648ZM49.1551 253.885L60.1999 235.763L68.5343 237.041L65.7128 277.671L61.1405 280.117L49.1551 253.885ZM60.257 280.59L48.5267 254.916L19.6378 302.316L60.257 280.59ZM19.692 302.741L60.4235 280.954L64.7442 290.411L19.692 302.741ZM61.307 280.482L65.68 278.142L64.9621 288.481L61.307 280.482ZM66.7211 277.586L66.1182 286.268L67.5196 277.159L66.7211 277.586ZM68.2914 276.746L66.3851 289.137L80.4068 270.265L68.2914 276.746ZM80.9662 269.513L68.3674 276.251L74.2645 237.921L101.352 242.076L80.9662 269.513ZM81.854 269.491L67.5047 288.804L124.88 246.477L81.854 269.491ZM125.372 245.761L82.4134 268.738L102.135 242.196L125.372 245.761ZM67.5957 276.664L66.7538 277.115L69.5261 237.194L73.5726 237.814L67.5957 276.664ZM48.1755 254.147L38.7462 233.509L38.6132 233.563L19.4797 301.231L48.1755 254.147ZM112.791 227.855L125.373 244.396L107.022 235.619L112.791 227.855ZM112.35 227.275L106.378 235.311L76.8393 221.184L77.4776 217.035L99.8865 210.891L112.35 227.275ZM105.953 235.884L76.7282 221.907L74.4165 236.932L102.027 241.168L105.953 235.884ZM76.7382 217.238L76.1796 220.868L71.5581 218.658L76.7382 217.238ZM76.0685 221.591L70.7851 219.064L69.5956 236.193L73.7246 236.826L76.0685 221.591ZM81.1518 188.549L69.4453 217.582L61.4494 208.292L81.2687 187.79L81.1518 188.549ZM68.792 217.896L60.9609 208.798L39.2844 231.222L68.792 217.896ZM81.14 186.484L60.7943 207.531L3.95773 141.5L81.14 186.484ZM60.3058 208.037L2.10432 140.42L1.5583 140.102L38.2593 231.14L38.3435 230.842L38.3777 230.721L38.4651 230.63L60.3058 208.037ZM124.073 244.55L106.596 236.191L102.81 241.288L124.073 244.55ZM113.412 227.019L126.495 244.219L132.326 202.432L132.346 201.99L131.922 202.107L113.412 227.019ZM130.827 202.407L112.97 226.439L100.926 210.606L130.827 202.407ZM178.181 68.9813L175.846 109.832L174.059 75.6912L178.181 68.9813ZM179.104 65.6688L171.971 24.772L220.143 36.7003L179.104 65.6688Z" fill="#DDEAF6"/>
</svg>
