<svg width="20" height="15" viewBox="0 0 20 15" fill="none" xmlns="http://www.w3.org/2000/svg">
<path d="M15.8463 0H4.15374C1.85969 0 0 1.97106 0 4.40248V10.5975C0 13.0289 1.85969 15 4.15374 15H15.8463C18.1403 15 20 13.0289 20 10.5975V4.40248C20 1.97106 18.1403 0 15.8463 0ZM13.0371 7.80141L7.56814 10.566C7.42241 10.6396 7.25408 10.527 7.25408 10.3559V4.654C7.25408 4.48047 7.42684 4.368 7.57287 4.44644L13.0418 7.3838C13.2044 7.47112 13.2016 7.71828 13.0371 7.80141Z" fill="#1B3050"/>
</svg>
